{
    "key": "group_60b4d068d13dd",
    "title": "בתי אבות",
    "fields": [
        {
            "key": "field_60b4d08f639db",
            "label": "כותרת",
            "name": "search_page_title",
            "type": "text",
            "instructions": "",
            "required": 0,
            "conditional_logic": 0,
            "wrapper": {
                "width": "",
                "class": "",
                "id": ""
            },
            "default_value": "",
            "placeholder": "",
            "prepend": "",
            "append": "",
            "maxlength": ""
        },
        {
            "key": "field_60b4d0a5639dc",
            "label": "כותרת משנה",
            "name": "search_page_subtitle",
            "type": "text",
            "instructions": "",
            "required": 0,
            "conditional_logic": 0,
            "wrapper": {
                "width": "",
                "class": "",
                "id": ""
            },
            "default_value": "",
            "placeholder": "",
            "prepend": "",
            "append": "",
            "maxlength": ""
        }
    ],
    "location": [
        [
            {
                "param": "page_template",
                "operator": "==",
                "value": "views\/places.php"
            }
        ],
        [
            {
                "param": "taxonomy",
                "operator": "==",
                "value": "department"
            }
        ],
        [
            {
                "param": "taxonomy",
                "operator": "==",
                "value": "place_type"
            }
        ],
        [
            {
                "param": "taxonomy",
                "operator": "==",
                "value": "location"
            }
        ]
    ],
    "menu_order": 0,
    "position": "normal",
    "style": "default",
    "label_placement": "top",
    "instruction_placement": "label",
    "hide_on_screen": "",
    "active": true,
    "description": "",
    "modified": 1622462643
}